{
 "background_color": "Blanc",
 "button_gradients": 0,
 "button_rounded_corners": 1,
 "button_shadows": 0,
 "creation": "2023-06-06 14:00:52.707575",
 "custom": 0,
 "custom_overrides": "",
 "custom_scss": ".hero-title,\n.hero-subtitle {\n    color: #fff;\n}\n\n.navbar-light .navbar-nav .nav-link {\n  color: #4c5a67;\n  font-size: 1.2rem;\n  font-weight: 600;\n}\n\n.main-column .page-content-wrapper {\n    margin: 0;\n}",
 "docstatus": 0,
 "doctype": "Website Theme",
 "font_properties": "wght@300;400;500;600;700;800",
 "idx": 1,
 "ignored_apps": [],
 "js": "",
 "modified": "2023-06-06 16:26:28.869890",
 "modified_by": "Administrator",
 "module": "Maia Website",
 "name": "Maia",
 "primary_color": "Rose Maia",
 "sidebar_color": "Gris",
 "theme": "Maia",
 "theme_scss": "$primary: #ff4081;$body-bg: #ffffff;$sidebar-bg: #cccccc;$enable-shadows: false;\n$enable-gradients: false;\n$enable-rounded: true;\n\n// Bootstrap Variable Overrides\n\n\n// Import themes from installed apps\n@import \"frappe/public/scss/website.bundle\";\n\n\n\n// Custom Theme\n.hero-title,\n.hero-subtitle {\n    color: #fff;\n}\n\n.navbar-light .navbar-nav .nav-link {\n  color: #4c5a67;\n  font-size: 1.2rem;\n  font-weight: 600;\n}\n\n.main-column .page-content-wrapper {\n    margin: 0;\n}\n\n:root {\n\t\n\t--primary: #{$primary};\n\t--primary-color: #{$primary};\n\t\n\t--bg-color: #{$body-bg};\n\t\n\t--web-sidebar-bg: #{$sidebar-bg};\n\t--web-sidebar-bg-alpha: 1;\n\t}",
 "theme_url": "/files/website_theme/maia_style.css"
}