{
 "charts": [
  {
   "chart_name": "Revenue",
   "label": "Revenue"
  }
 ],
 "color": "#84c4bf",
 "content": "[{\"id\":\"KthaEMtTbf\",\"type\":\"header\",\"data\":{\"text\":\"<span class=\\\"h4\\\">Maia Accounting</span>\",\"col\":12}},{\"id\":\"8KwKcbQrtA\",\"type\":\"chart\",\"data\":{\"chart_name\":\"Revenue\",\"col\":12}},{\"id\":\"Z8pZdZGNA7\",\"type\":\"card\",\"data\":{\"card_name\":\"Daily Operations\",\"col\":6}},{\"id\":\"vu3qo0pdEB\",\"type\":\"card\",\"data\":{\"card_name\":\"Reports\",\"col\":6}},{\"id\":\"qO5jTLEWPL\",\"type\":\"card\",\"data\":{\"card_name\":\"Assets\",\"col\":6}},{\"id\":\"oQiOD9NP-F\",\"type\":\"card\",\"data\":{\"card_name\":\"Setup\",\"col\":6}}]",
 "creation": "2023-03-06 17:02:32.005273",
 "docstatus": 0,
 "doctype": "Workspace",
 "for_user": "",
 "hide_custom": 0,
 "icon": "money-coins-1",
 "idx": 0,
 "is_hidden": 0,
 "is_standard": 1,
 "label": "Maia Accounting",
 "links": [
  {
   "columns": 0,
   "hidden": 0,
   "is_query_report": 0,
   "label": "Daily Operations",
   "link_count": 4,
   "onboard": 0,
   "type": "Card Break"
  },
  {
   "columns": 0,
   "hidden": 0,
   "is_query_report": 0,
   "label": "Revenue",
   "link_count": 0,
   "link_to": "Revenue",
   "link_type": "DocType",
   "onboard": 0,
   "type": "Link"
  },
  {
   "columns": 0,
   "hidden": 0,
   "is_query_report": 0,
   "label": "Expense",
   "link_count": 0,
   "link_to": "Expense",
   "link_type": "DocType",
   "onboard": 0,
   "type": "Link"
  },
  {
   "columns": 0,
   "hidden": 0,
   "is_query_report": 0,
   "label": "Miscellaneous Operation",
   "link_count": 0,
   "link_to": "Miscellaneous Operation",
   "link_type": "DocType",
   "onboard": 0,
   "type": "Link"
  },
  {
   "columns": 0,
   "hidden": 0,
   "is_query_report": 0,
   "label": "Payment",
   "link_count": 0,
   "link_to": "Payment",
   "link_type": "DocType",
   "onboard": 0,
   "type": "Link"
  },
  {
   "columns": 0,
   "hidden": 0,
   "is_query_report": 0,
   "label": "Reports",
   "link_count": 9,
   "onboard": 0,
   "type": "Card Break"
  },
  {
   "columns": 0,
   "hidden": 0,
   "is_query_report": 0,
   "label": "Revenue Journal",
   "link_count": 0,
   "link_to": "Revenue Journal",
   "link_type": "Report",
   "onboard": 0,
   "type": "Link"
  },
  {
   "columns": 0,
   "hidden": 0,
   "is_query_report": 0,
   "label": "Maia General Ledger",
   "link_count": 0,
   "link_to": "Maia General Ledger",
   "link_type": "Report",
   "onboard": 0,
   "type": "Link"
  },
  {
   "columns": 0,
   "hidden": 0,
   "is_query_report": 0,
   "label": "Maia Profit and Loss Statement",
   "link_count": 0,
   "link_to": "Maia Profit and Loss Statement",
   "link_type": "Report",
   "onboard": 0,
   "type": "Link"
  },
  {
   "columns": 0,
   "hidden": 0,
   "is_query_report": 0,
   "label": "Trial Balance",
   "link_count": 0,
   "link_to": "Trial Balance",
   "link_type": "Report",
   "onboard": 0,
   "type": "Link"
  },
  {
   "columns": 0,
   "hidden": 0,
   "is_query_report": 0,
   "label": "Bank Balance",
   "link_count": 0,
   "link_to": "Bank Balance",
   "link_type": "Report",
   "onboard": 0,
   "type": "Link"
  },
  {
   "columns": 0,
   "hidden": 0,
   "is_query_report": 0,
   "label": "Personal Debits and Credits",
   "link_count": 0,
   "link_to": "Personal Debits and Credits",
   "link_type": "Report",
   "onboard": 0,
   "type": "Link"
  },
  {
   "columns": 0,
   "hidden": 0,
   "is_query_report": 0,
   "label": "Overbilling",
   "link_count": 0,
   "link_to": "Overbilling",
   "link_type": "Report",
   "onboard": 0,
   "type": "Link"
  },
  {
   "columns": 0,
   "hidden": 0,
   "is_query_report": 0,
   "label": "D\u00e9claration 2035",
   "link_count": 0,
   "link_to": "Declaration 2035",
   "link_type": "Report",
   "onboard": 0,
   "type": "Link"
  },
  {
   "columns": 0,
   "hidden": 0,
   "is_query_report": 0,
   "label": "Fichier des \u00e9critures comptables",
   "link_count": 0,
   "link_to": "Fichier des Ecritures Comptables",
   "link_type": "Report",
   "onboard": 0,
   "type": "Link"
  },
  {
   "columns": 0,
   "hidden": 0,
   "is_query_report": 0,
   "label": "Assets",
   "link_count": 1,
   "onboard": 0,
   "type": "Card Break"
  },
  {
   "columns": 0,
   "hidden": 0,
   "is_query_report": 0,
   "label": "Asset",
   "link_count": 0,
   "link_to": "Maia Asset",
   "link_type": "DocType",
   "onboard": 0,
   "type": "Link"
  },
  {
   "columns": 0,
   "hidden": 0,
   "is_query_report": 0,
   "label": "Setup",
   "link_count": 7,
   "onboard": 0,
   "type": "Card Break"
  },
  {
   "columns": 0,
   "hidden": 0,
   "is_query_report": 0,
   "label": "Party",
   "link_count": 0,
   "link_to": "Party",
   "link_type": "DocType",
   "onboard": 0,
   "type": "Link"
  },
  {
   "columns": 0,
   "hidden": 0,
   "is_query_report": 0,
   "label": "Accounting Item",
   "link_count": 0,
   "link_to": "Accounting Item",
   "link_type": "DocType",
   "onboard": 0,
   "type": "Link"
  },
  {
   "columns": 0,
   "hidden": 0,
   "is_query_report": 0,
   "label": "Payment Methods",
   "link_count": 0,
   "link_to": "Payment Method",
   "link_type": "DocType",
   "onboard": 0,
   "type": "Link"
  },
  {
   "columns": 0,
   "hidden": 0,
   "is_query_report": 0,
   "label": "Bank Statement Balance",
   "link_count": 0,
   "link_to": "Bank Statement Balance",
   "link_type": "DocType",
   "onboard": 0,
   "type": "Link"
  },
  {
   "columns": 0,
   "hidden": 0,
   "is_query_report": 0,
   "label": "Bank Account",
   "link_count": 0,
   "link_to": "Maia Bank Account",
   "link_type": "DocType",
   "onboard": 0,
   "type": "Link"
  },
  {
   "columns": 0,
   "hidden": 0,
   "is_query_report": 0,
   "label": "Fiscal Year",
   "link_count": 0,
   "link_to": "Maia Fiscal Year",
   "link_type": "DocType",
   "onboard": 0,
   "type": "Link"
  },
  {
   "columns": 0,
   "hidden": 0,
   "is_query_report": 0,
   "label": "Meal Expense Deduction",
   "link_count": 0,
   "link_to": "Meal Expense Deduction",
   "link_type": "DocType",
   "onboard": 0,
   "type": "Link"
  }
 ],
 "modified": "2023-03-30 15:45:11.725590",
 "modified_by": "Administrator",
 "module": "Maia Accounting",
 "name": "Maia Accounting",
 "number_cards": [],
 "owner": "Administrator",
 "parent_page": "",
 "public": 1,
 "quick_lists": [],
 "roles": [],
 "sequence_id": 2.0,
 "shortcuts": [],
 "title": "Maia Accounting"
}