{
 "actions": [],
 "allow_import": 1,
 "autoname": "naming_series:",
 "creation": "2017-03-16 19:04:54.068106",
 "doctype": "DocType",
 "document_type": "Document",
 "editable_grid": 1,
 "engine": "InnoDB",
 "field_order": [
  "naming_series",
  "patient_name",
  "section_break_2",
  "patient_record",
  "practitioner",
  "consultation_date",
  "column_break_2",
  "perineum_rehabilitation_folder",
  "pregnancy_folder",
  "prenatal_interview_folder",
  "gynecological_folder",
  "section_break_4",
  "comments",
  "billing_details",
  "accounting_disabled",
  "third_party_payment",
  "social_security_price",
  "column_break_19",
  "hundred_percent_maternity",
  "malady",
  "column_break_58",
  "normal_rate",
  "alsace_moselle_rate",
  "billing_details_1",
  "sundays_holidays_allowance",
  "night_work_allowance",
  "night_work_allowance_type",
  "codification",
  "codification_description",
  "column_break_10",
  "lump_sum_travel_allowance",
  "mileage_allowance",
  "mileage_allowance_type",
  "number_of_kilometers",
  "without_codification",
  "without_codification_description",
  "billing_details_2",
  "consultation_items",
  "billing_details_4",
  "codification_value",
  "overpayment_value",
  "column_break_41",
  "without_codification_display",
  "total_allowances",
  "billing_details_3",
  "cpam_share_display",
  "patient_price",
  "total_price",
  "column_break_37",
  "paid_immediately",
  "mode_of_payment",
  "reference",
  "section_break_57",
  "amended_from",
  "print_settings",
  "letter_head"
 ],
 "fields": [
  {
   "default": "CONS-LIBRE-.YYYY.-",
   "fieldname": "naming_series",
   "fieldtype": "Select",
   "hidden": 1,
   "label": "Series",
   "options": "CONS-LIBRE-.YYYY.-",
   "reqd": 1
  },
  {
   "fetch_from": "patient_record.patient_name",
   "fieldname": "patient_name",
   "fieldtype": "Data",
   "in_list_view": 1,
   "label": "Patient Name",
   "read_only": 1
  },
  {
   "fieldname": "section_break_2",
   "fieldtype": "Section Break"
  },
  {
   "fieldname": "patient_record",
   "fieldtype": "Link",
   "in_standard_filter": 1,
   "label": "Patient Record",
   "options": "Patient Record",
   "reqd": 1,
   "set_only_once": 1
  },
  {
   "fieldname": "practitioner",
   "fieldtype": "Link",
   "in_standard_filter": 1,
   "label": "Practitioner",
   "options": "Professional Information Card",
   "print_hide": 1,
   "remember_last_selected_value": 1,
   "reqd": 1,
   "search_index": 1
  },
  {
   "default": "Today",
   "fieldname": "consultation_date",
   "fieldtype": "Date",
   "label": "Consultation Date",
   "reqd": 1
  },
  {
   "fieldname": "column_break_2",
   "fieldtype": "Column Break"
  },
  {
   "fieldname": "perineum_rehabilitation_folder",
   "fieldtype": "Link",
   "label": "Perineum Rehabilitation Folder",
   "options": "Perineum Rehabilitation",
   "set_only_once": 1
  },
  {
   "fieldname": "pregnancy_folder",
   "fieldtype": "Link",
   "in_list_view": 1,
   "label": "Pregnancy Folder",
   "options": "Pregnancy",
   "set_only_once": 1
  },
  {
   "fieldname": "prenatal_interview_folder",
   "fieldtype": "Link",
   "label": "Prenatal Interview Folder",
   "options": "Prenatal Interview",
   "set_only_once": 1
  },
  {
   "fieldname": "gynecological_folder",
   "fieldtype": "Link",
   "in_list_view": 1,
   "label": "Gynecological Folder",
   "options": "Gynecology",
   "set_only_once": 1
  },
  {
   "fieldname": "section_break_4",
   "fieldtype": "Section Break",
   "label": "Consultation"
  },
  {
   "fieldname": "comments",
   "fieldtype": "Text",
   "label": "Comments"
  },
  {
   "depends_on": "eval:doc.accounting_disabled==0",
   "fieldname": "billing_details",
   "fieldtype": "Section Break",
   "label": "Billing Details"
  },
  {
   "default": "0",
   "fieldname": "third_party_payment",
   "fieldtype": "Check",
   "label": "Third-Party Payment"
  },
  {
   "fieldname": "column_break_19",
   "fieldtype": "Column Break"
  },
  {
   "default": "1",
   "depends_on": "eval:doc.third_party_payment",
   "fieldname": "hundred_percent_maternity",
   "fieldtype": "Check",
   "label": "100% Maternity"
  },
  {
   "default": "0",
   "depends_on": "eval:doc.third_party_payment",
   "fieldname": "malady",
   "fieldtype": "Check",
   "label": "Malady"
  },
  {
   "fieldname": "column_break_58",
   "fieldtype": "Column Break"
  },
  {
   "default": "1",
   "depends_on": "eval:doc.third_party_payment&&doc.malady",
   "fieldname": "normal_rate",
   "fieldtype": "Check",
   "label": "Normal Rate (70%)"
  },
  {
   "default": "0",
   "depends_on": "eval:doc.third_party_payment&&doc.malady",
   "fieldname": "alsace_moselle_rate",
   "fieldtype": "Check",
   "label": "Régime d'Alsace-Moselle (90%)"
  },
  {
   "default": "0",
   "fieldname": "sundays_holidays_allowance",
   "fieldtype": "Check",
   "label": "Sundays/Holidays Allowance"
  },
  {
   "default": "0",
   "fieldname": "night_work_allowance",
   "fieldtype": "Check",
   "label": "Night Work Allowance"
  },
  {
   "default": "20h-0h | 6h-8h",
   "depends_on": "eval:(doc.night_work_allowance==1)",
   "fieldname": "night_work_allowance_type",
   "fieldtype": "Select",
   "label": "Night Work Allowance Type",
   "options": "20h-0h | 6h-8h\n0h-6h"
  },
  {
   "fieldname": "codification",
   "fieldtype": "Table MultiSelect",
   "label": "Codification",
   "options": "Maia Selected Codification"
  },
  {
   "fieldname": "overpayment_value",
   "fieldtype": "Currency",
   "label": "Overpayment",
   "read_only": 1
  },
  {
   "fieldname": "codification_description",
   "fieldtype": "Small Text",
   "label": "Description",
   "read_only": 1
  },
  {
   "fieldname": "column_break_10",
   "fieldtype": "Column Break"
  },
  {
   "default": "0",
   "fieldname": "lump_sum_travel_allowance",
   "fieldtype": "Check",
   "label": "Lump Sum Travel Allowance"
  },
  {
   "default": "0",
   "fieldname": "mileage_allowance",
   "fieldtype": "Check",
   "label": "Mileage Allowance"
  },
  {
   "default": "Lowland",
   "depends_on": "eval:(doc.mileage_allowance==1)",
   "fieldname": "mileage_allowance_type",
   "fieldtype": "Select",
   "label": "Mileage Allowance Type",
   "options": "Lowland\nMountain\nWalking/Skiing"
  },
  {
   "depends_on": "eval:(doc.mileage_allowance==1)",
   "fieldname": "number_of_kilometers",
   "fieldtype": "Int",
   "label": "Number of Kilometers",
   "precision": "1"
  },
  {
   "fieldname": "without_codification",
   "fieldtype": "Currency",
   "label": "Without Codification (€)"
  },
  {
   "depends_on": "eval:(doc.without_codification)",
   "fieldname": "without_codification_description",
   "fieldtype": "Data",
   "label": "Description"
  },
  {
   "fieldname": "cpam_share_display",
   "fieldtype": "Currency",
   "label": "CPAM Share",
   "read_only": 1
  },
  {
   "fieldname": "without_codification_display",
   "fieldtype": "Currency",
   "label": "Without Codification",
   "read_only": 1
  },
  {
   "fieldname": "column_break_41",
   "fieldtype": "Column Break"
  },
  {
   "default": "0",
   "depends_on": "eval:(doc.patient_price)",
   "fieldname": "paid_immediately",
   "fieldtype": "Check",
   "label": "Paid Immediately"
  },
  {
   "depends_on": "eval:(doc.paid_immediately==1&&doc.patient_price)",
   "fieldname": "mode_of_payment",
   "fieldtype": "Link",
   "label": "Mode of Payment",
   "options": "Payment Method"
  },
  {
   "depends_on": "eval:(doc.paid_immediately==1&&doc.patient_price)",
   "fieldname": "reference",
   "fieldtype": "Data",
   "label": "Reference"
  },
  {
   "fieldname": "column_break_37",
   "fieldtype": "Column Break"
  },
  {
   "fieldname": "patient_price",
   "fieldtype": "Currency",
   "label": "Patient Price",
   "read_only": 1
  },
  {
   "bold": 1,
   "default": "0",
   "fieldname": "total_price",
   "fieldtype": "Currency",
   "label": "Total Price",
   "read_only": 1
  },
  {
   "fieldname": "section_break_57",
   "fieldtype": "Section Break"
  },
  {
   "fieldname": "amended_from",
   "fieldtype": "Link",
   "label": "Amended From",
   "no_copy": 1,
   "options": "Free Consultation",
   "print_hide": 1,
   "read_only": 1
  },
  {
   "collapsible": 1,
   "fieldname": "print_settings",
   "fieldtype": "Section Break",
   "label": "Print Settings"
  },
  {
   "allow_on_submit": 1,
   "fieldname": "letter_head",
   "fieldtype": "Link",
   "label": "Letter Head",
   "options": "Letter Head"
  },
  {
   "default": "0",
   "fieldname": "social_security_price",
   "fieldtype": "Check",
   "label": "Apply social security price"
  },
  {
   "depends_on": "eval:doc.accounting_disabled==0",
   "fieldname": "billing_details_1",
   "fieldtype": "Section Break"
  },
  {
   "collapsible": 1,
   "depends_on": "eval:doc.accounting_disabled==0",
   "fieldname": "billing_details_2",
   "fieldtype": "Section Break",
   "label": "Pricing Details"
  },
  {
   "depends_on": "eval:doc.accounting_disabled==0",
   "fieldname": "billing_details_3",
   "fieldtype": "Section Break"
  },
  {
   "default": "0",
   "fieldname": "accounting_disabled",
   "fieldtype": "Check",
   "hidden": 1,
   "label": "Accounting Disabled"
  },
  {
   "fieldname": "consultation_items",
   "fieldtype": "Table",
   "label": "Details",
   "options": "Consultation Items",
   "read_only": 1
  },
  {
   "fieldname": "total_allowances",
   "fieldtype": "Currency",
   "label": "Total Allowances",
   "read_only": 1
  },
  {
   "default": "0",
   "fieldname": "codification_value",
   "fieldtype": "Currency",
   "label": "Codification Total Value",
   "read_only": 1
  },
  {
   "depends_on": "eval:doc.accounting_disabled==0",
   "fieldname": "billing_details_4",
   "fieldtype": "Section Break"
  }
 ],
 "is_submittable": 1,
 "links": [],
 "modified": "2023-06-09 15:12:19.026438",
 "modified_by": "Administrator",
 "module": "Maia",
 "name": "Free Consultation",
 "owner": "Administrator",
 "permissions": [
  {
   "amend": 1,
   "cancel": 1,
   "create": 1,
   "delete": 1,
   "email": 1,
   "export": 1,
   "print": 1,
   "read": 1,
   "report": 1,
   "role": "System Manager",
   "share": 1,
   "submit": 1,
   "write": 1
  },
  {
   "amend": 1,
   "cancel": 1,
   "create": 1,
   "delete": 1,
   "email": 1,
   "export": 1,
   "import": 1,
   "print": 1,
   "read": 1,
   "report": 1,
   "role": "Midwife",
   "share": 1,
   "submit": 1,
   "write": 1
  },
  {
   "amend": 1,
   "cancel": 1,
   "create": 1,
   "delete": 1,
   "email": 1,
   "export": 1,
   "print": 1,
   "read": 1,
   "report": 1,
   "role": "Midwife Substitute",
   "share": 1,
   "submit": 1,
   "write": 1
  }
 ],
 "route": "",
 "show_name_in_global_search": 1,
 "sort_field": "modified",
 "sort_order": "DESC",
 "states": [],
 "timeline_field": "patient_record",
 "title_field": "patient_name",
 "track_changes": 1
}
