{
 "actions": [],
 "creation": "2019-04-08 11:58:49.472764",
 "doctype": "DocType",
 "editable_grid": 1,
 "engine": "InnoDB",
 "field_order": [
  "codification"
 ],
 "fields": [
  {
   "fieldname": "codification",
   "fieldtype": "Link",
   "in_list_view": 1,
   "label": "Codification",
   "options": "Codification",
   "reqd": 1
  }
 ],
 "istable": 1,
 "links": [],
 "modified": "2023-06-09 15:12:21.733720",
 "modified_by": "Administrator",
 "module": "Maia Accounting",
 "name": "Maia Selected Codification",
 "owner": "Administrator",
 "permissions": [],
 "route": "",
 "sort_field": "modified",
 "sort_order": "DESC",
 "states": []
}
