{
 "actions": [],
 "allow_rename": 1,
 "autoname": "naming_series:",
 "creation": "2019-04-15 16:00:40.828655",
 "doctype": "DocType",
 "editable_grid": 1,
 "engine": "InnoDB",
 "field_order": [
  "naming_series",
  "expense_type",
  "party",
  "label",
  "amount",
  "with_items",
  "column_break_4",
  "practitioner",
  "transaction_date",
  "accounting_item",
  "items_section",
  "expense_items",
  "section_break_8",
  "note",
  "section_break_11",
  "outstanding_amount",
  "section_break_17",
  "reference_doctype",
  "status",
  "column_break_20",
  "reference_name",
  "amended_from"
 ],
 "fields": [
  {
   "default": "DEP-.YYYY.-",
   "fieldname": "naming_series",
   "fieldtype": "Select",
   "hidden": 1,
   "label": "Series",
   "options": "DEP-.YYYY.-",
   "reqd": 1
  },
  {
   "fieldname": "expense_type",
   "fieldtype": "Select",
   "label": "Expense Type",
   "options": "Miscellaneous\nMeal expense\nSocial contributions",
   "reqd": 1
  },
  {
   "fieldname": "label",
   "fieldtype": "Data",
   "in_list_view": 1,
   "label": "Label",
   "reqd": 1
  },
  {
   "fieldname": "party",
   "fieldtype": "Link",
   "in_list_view": 1,
   "in_standard_filter": 1,
   "label": "Party",
   "options": "Party"
  },
  {
   "fieldname": "amount",
   "fieldtype": "Currency",
   "in_list_view": 1,
   "label": "Amount",
   "reqd": 1
  },
  {
   "default": "0",
   "fieldname": "with_items",
   "fieldtype": "Check",
   "label": "With Items"
  },
  {
   "fieldname": "column_break_4",
   "fieldtype": "Column Break"
  },
  {
   "fieldname": "practitioner",
   "fieldtype": "Link",
   "in_list_view": 1,
   "label": "Practitioner",
   "options": "Professional Information Card",
   "reqd": 1
  },
  {
   "default": "Today",
   "fieldname": "transaction_date",
   "fieldtype": "Date",
   "label": "Transaction Date",
   "reqd": 1
  },
  {
   "depends_on": "eval:!doc.with_items",
   "fieldname": "accounting_item",
   "fieldtype": "Link",
   "label": "Accounting Item",
   "options": "Accounting Item"
  },
  {
   "depends_on": "eval:doc.with_items",
   "fieldname": "items_section",
   "fieldtype": "Section Break",
   "label": "Items"
  },
  {
   "fieldname": "expense_items",
   "fieldtype": "Table",
   "label": "Expense Items",
   "options": "Expense Items"
  },
  {
   "fieldname": "section_break_8",
   "fieldtype": "Section Break"
  },
  {
   "fieldname": "note",
   "fieldtype": "Small Text",
   "label": "Note"
  },
  {
   "fieldname": "section_break_11",
   "fieldtype": "Section Break"
  },
  {
   "fieldname": "outstanding_amount",
   "fieldtype": "Currency",
   "label": "Outstanding Amount",
   "read_only": 1
  },
  {
   "fieldname": "section_break_17",
   "fieldtype": "Section Break"
  },
  {
   "fieldname": "reference_doctype",
   "fieldtype": "Link",
   "label": "Reference DocType",
   "options": "DocType",
   "read_only": 1
  },
  {
   "fieldname": "status",
   "fieldtype": "Select",
   "hidden": 1,
   "in_standard_filter": 1,
   "label": "Status",
   "options": "Draft\nUnpaid\nPaid\nCancelled"
  },
  {
   "fieldname": "column_break_20",
   "fieldtype": "Column Break"
  },
  {
   "fieldname": "reference_name",
   "fieldtype": "Dynamic Link",
   "label": "Reference Document",
   "options": "reference_doctype",
   "read_only": 1
  },
  {
   "fieldname": "amended_from",
   "fieldtype": "Link",
   "label": "Amended From",
   "no_copy": 1,
   "options": "Expense",
   "print_hide": 1,
   "read_only": 1
  }
 ],
 "is_sealed": 1,
 "is_submittable": 1,
 "links": [],
 "modified": "2023-06-09 15:12:22.590990",
 "modified_by": "Administrator",
 "module": "Maia Accounting",
 "name": "Expense",
 "name_after_submit": 1,
 "owner": "Administrator",
 "permissions": [
  {
   "amend": 1,
   "cancel": 1,
   "create": 1,
   "delete": 1,
   "email": 1,
   "export": 1,
   "print": 1,
   "read": 1,
   "report": 1,
   "role": "System Manager",
   "share": 1,
   "submit": 1,
   "write": 1
  },
  {
   "amend": 1,
   "cancel": 1,
   "create": 1,
   "delete": 1,
   "email": 1,
   "export": 1,
   "print": 1,
   "read": 1,
   "report": 1,
   "role": "Midwife",
   "share": 1,
   "submit": 1,
   "write": 1
  },
  {
   "amend": 1,
   "cancel": 1,
   "create": 1,
   "delete": 1,
   "email": 1,
   "export": 1,
   "print": 1,
   "read": 1,
   "report": 1,
   "role": "Midwife Substitute",
   "share": 1,
   "submit": 1,
   "write": 1
  }
 ],
 "route": "",
 "sort_field": "modified",
 "sort_order": "DESC",
 "states": [],
 "title_field": "label",
 "track_changes": 1
}
