{
 "actions": [],
 "autoname": "naming_series:",
 "creation": "2017-04-25 15:30:02.439968",
 "doctype": "DocType",
 "editable_grid": 1,
 "engine": "InnoDB",
 "field_order": [
  "appointment",
  "naming_series",
  "subject",
  "patient_record",
  "user",
  "practitioner",
  "appointment_type",
  "number_of_seats",
  "seats_left",
  "repeat_this_event",
  "repeat",
  "repeat_till",
  "rrule",
  "sync_with_google_calendar",
  "column_break_5",
  "status",
  "patient_name",
  "start_dt",
  "end_dt",
  "duration",
  "all_day",
  "google_calendar_section",
  "google_calendar",
  "column_break_26",
  "google_calendar_id",
  "google_calendar_event_id",
  "reminder_the_day_before",
  "reminder",
  "email",
  "column_break_17",
  "sms_reminder",
  "mobile_no",
  "section_break_9",
  "notes",
  "color",
  "section_break_37",
  "group_event_info",
  "section_break_39",
  "online_booking",
  "personal_event",
  "group_event",
  "column_break_42",
  "practitioner_user",
  "amended_from"
 ],
 "fields": [
  {
   "fieldname": "appointment",
   "fieldtype": "Section Break",
   "label": "Appointment"
  },
  {
   "default": "RDV-",
   "fieldname": "naming_series",
   "fieldtype": "Select",
   "hidden": 1,
   "label": "Series",
   "options": "RDV-",
   "reqd": 1
  },
  {
   "depends_on": "eval:doc.personal_event",
   "fieldname": "subject",
   "fieldtype": "Data",
   "label": "Subject",
   "mandatory_depends_on": "eval:doc.personal_event"
  },
  {
   "depends_on": "eval:(!doc.personal_event)&&(!doc.group_event)",
   "fieldname": "patient_record",
   "fieldtype": "Link",
   "in_list_view": 1,
   "in_preview": 1,
   "in_standard_filter": 1,
   "label": "Patient Record",
   "mandatory_depends_on": "eval:!doc.personal_event&&!doc.group_event",
   "options": "Patient Record"
  },
  {
   "fetch_from": "patient_record.website_user",
   "fieldname": "user",
   "fieldtype": "Link",
   "hidden": 1,
   "label": "User",
   "options": "User"
  },
  {
   "fieldname": "practitioner",
   "fieldtype": "Link",
   "in_preview": 1,
   "in_standard_filter": 1,
   "label": "Practitioner",
   "options": "Professional Information Card",
   "reqd": 1
  },
  {
   "depends_on": "eval:!doc.personal_event",
   "fieldname": "appointment_type",
   "fieldtype": "Link",
   "in_standard_filter": 1,
   "label": "Appointment Type",
   "mandatory_depends_on": "eval:!doc.personal_event",
   "options": "Maia Appointment Type"
  },
  {
   "depends_on": "eval:(doc.group_event)",
   "fieldname": "number_of_seats",
   "fieldtype": "Data",
   "label": "Number of Seats",
   "read_only": 1
  },
  {
   "depends_on": "eval:(doc.group_event&&doc.status!='Cancelled')",
   "fieldname": "seats_left",
   "fieldtype": "Data",
   "label": "Seats Left",
   "read_only": 1
  },
  {
   "default": "0",
   "depends_on": "eval:(doc.personal_event==1)",
   "fieldname": "repeat_this_event",
   "fieldtype": "Check",
   "label": "Repeat this Event"
  },
  {
   "fieldname": "column_break_5",
   "fieldtype": "Column Break"
  },
  {
   "depends_on": "eval:(!doc.personal_event)&&(!doc.group_event)",
   "fetch_from": "patient_record.patient_name",
   "fieldname": "patient_name",
   "fieldtype": "Data",
   "label": "Patient Name",
   "read_only": 1
  },
  {
   "fieldname": "start_dt",
   "fieldtype": "Datetime",
   "in_list_view": 1,
   "in_preview": 1,
   "label": "Start Time",
   "reqd": 1
  },
  {
   "fieldname": "end_dt",
   "fieldtype": "Datetime",
   "label": "End Time"
  },
  {
   "depends_on": "eval:!doc.personal_event",
   "fetch_from": "appointment_type.duration",
   "fetch_if_empty": 1,
   "fieldname": "duration",
   "fieldtype": "Data",
   "label": "Duration (mins)",
   "read_only": 1
  },
  {
   "default": "#d2d2ff",
   "depends_on": "eval:(doc.personal_event==1)",
   "fieldname": "color",
   "fieldtype": "Color",
   "label": "Color"
  },
  {
   "depends_on": "eval:(!doc.personal_event&&!doc.group_event)",
   "fieldname": "reminder_the_day_before",
   "fieldtype": "Section Break",
   "label": "Reminder the Day Before"
  },
  {
   "default": "1",
   "fieldname": "reminder",
   "fieldtype": "Check",
   "label": "Send an Email"
  },
  {
   "depends_on": "eval:doc.reminder",
   "fieldname": "email",
   "fieldtype": "Data",
   "label": "Email",
   "mandatory_depends_on": "eval:doc.reminder&&!doc.group_event&&!doc.personal_event",
   "options": "Email"
  },
  {
   "fieldname": "column_break_17",
   "fieldtype": "Column Break"
  },
  {
   "default": "0",
   "fieldname": "sms_reminder",
   "fieldtype": "Check",
   "label": "Send an SMS"
  },
  {
   "depends_on": "eval:doc.sms_reminder",
   "description": "00336XXXXXXXX or +33 6XXXXXXXX or +33 6.XX.XX.XX.XX",
   "fieldname": "mobile_no",
   "fieldtype": "Data",
   "label": "Mobile N\u00b0",
   "mandatory_depends_on": "eval:doc.sms_reminder&&!doc.group_event&&!doc.personal_event"
  },
  {
   "fieldname": "repeat_till",
   "fieldtype": "Date",
   "hidden": 1,
   "label": "Repeat Until"
  },
  {
   "fieldname": "section_break_9",
   "fieldtype": "Section Break",
   "label": "Notes"
  },
  {
   "fieldname": "notes",
   "fieldtype": "Small Text"
  },
  {
   "depends_on": "eval:(doc.group_event&&doc.status!='Cancelled')",
   "fieldname": "section_break_37",
   "fieldtype": "Section Break"
  },
  {
   "fieldname": "group_event_info",
   "fieldtype": "HTML",
   "label": "Group Event Info"
  },
  {
   "fieldname": "section_break_39",
   "fieldtype": "Section Break"
  },
  {
   "default": "0",
   "fieldname": "personal_event",
   "fieldtype": "Check",
   "hidden": 1,
   "label": "Personal Event"
  },
  {
   "default": "0",
   "fieldname": "group_event",
   "fieldtype": "Check",
   "hidden": 1,
   "in_standard_filter": 1,
   "label": "Group Event"
  },
  {
   "fieldname": "column_break_42",
   "fieldtype": "Column Break"
  },
  {
   "fieldname": "amended_from",
   "fieldtype": "Link",
   "label": "Amended From",
   "no_copy": 1,
   "options": "Maia Appointment",
   "print_hide": 1,
   "read_only": 1
  },
  {
   "default": "Confirmed",
   "fieldname": "status",
   "fieldtype": "Select",
   "label": "Status",
   "options": "Confirmed\nNot confirmed\nCancelled"
  },
  {
   "depends_on": "eval:(doc.personal_event == 1 && doc.repeat_this_event === 1)",
   "fieldname": "repeat",
   "fieldtype": "HTML",
   "label": "Repeat",
   "read_only": 1
  },
  {
   "fieldname": "rrule",
   "fieldtype": "Data",
   "hidden": 1,
   "label": "RRULE"
  },
  {
   "default": "0",
   "fieldname": "sync_with_google_calendar",
   "fieldtype": "Check",
   "hidden": 1,
   "label": "Sync with Google Calendar"
  },
  {
   "collapsible": 1,
   "depends_on": "eval:doc.sync_with_google_calendar",
   "fieldname": "google_calendar_section",
   "fieldtype": "Section Break",
   "label": "Google Calendar"
  },
  {
   "fieldname": "google_calendar",
   "fieldtype": "Link",
   "label": "Google Calendar",
   "options": "Google Calendar"
  },
  {
   "fieldname": "column_break_26",
   "fieldtype": "Column Break"
  },
  {
   "fieldname": "google_calendar_id",
   "fieldtype": "Data",
   "label": "Google Calendar ID",
   "read_only": 1
  },
  {
   "fieldname": "google_calendar_event_id",
   "fieldtype": "Data",
   "label": "Google Calendar Event ID",
   "read_only": 1
  },
  {
   "default": "0",
   "depends_on": "eval:doc.personal_event",
   "fieldname": "all_day",
   "fieldtype": "Check",
   "label": "All day"
  },
  {
   "default": "0",
   "depends_on": "eval:!doc.personal_event && !doc.group_event",
   "fieldname": "online_booking",
   "fieldtype": "Check",
   "label": "Booked online",
   "read_only": 1
  },
  {
   "fetch_from": "practitioner.user",
   "fieldname": "practitioner_user",
   "fieldtype": "Link",
   "hidden": 1,
   "label": "Practitioner user",
   "options": "User"
  }
 ],
 "icon": "uil uil-calendar-alt",
 "links": [],
 "modified": "2023-05-13 17:57:12.602722",
 "modified_by": "Administrator",
 "module": "Maia Appointment",
 "name": "Maia Appointment",
 "naming_rule": "By \"Naming Series\" field",
 "owner": "Administrator",
 "permissions": [
  {
   "create": 1,
   "delete": 1,
   "email": 1,
   "export": 1,
   "print": 1,
   "read": 1,
   "report": 1,
   "role": "Midwife",
   "share": 1,
   "write": 1
  },
  {
   "create": 1,
   "delete": 1,
   "email": 1,
   "export": 1,
   "print": 1,
   "read": 1,
   "report": 1,
   "role": "Midwife Substitute",
   "share": 1,
   "write": 1
  },
  {
   "create": 1,
   "read": 1,
   "role": "Patient",
   "write": 1
  },
  {
   "create": 1,
   "delete": 1,
   "email": 1,
   "export": 1,
   "print": 1,
   "read": 1,
   "report": 1,
   "role": "Appointment User",
   "share": 1,
   "write": 1
  }
 ],
 "sort_field": "start_dt",
 "sort_order": "ASC",
 "states": [],
 "title_field": "subject",
 "track_changes": 1
}